coder
…
As for all classcodes objects in the package, additional information and references are found in the object documentation (?rxriskv).

Concrete example

Let us consider the hypothetical setting above using some example data (ex_peopple and ex_atc) as described in vignette("ex_data").

Default categorization

A first attempt to calculate the Rx Risk V score for each patient:

default <- categorize(
    ex_people, codedata = ex_atc, cc = rxriskv, id = "name", code = "atc")
#> Classification based on: atc_pratt
default
#> # A tibble: 100 x 50
#>    name  surgery    Alcohol.depende… Allergies Anticoagulants Antiplatelets
#>    <chr> <date>     <lgl>            <lgl>     <lgl>          <lgl>        
#>  1 Chen… 2020-09-29 FALSE            TRUE      FALSE          FALSE        
#>  2 Grav… 2020-06-21 FALSE            FALSE     TRUE           FALSE        
#>  3 Truj… 2020-06-08 FALSE            FALSE     FALSE          FALSE        
#>  4 Simp… 2020-09-10 FALSE            FALSE     FALSE          FALSE        
#>  5 Chin… 2020-08-24 FALSE            FALSE     FALSE          FALSE        
#>  6 Le, … 2020-03-28 FALSE            TRUE      FALSE          FALSE        
#>  7 Kang… 2020-06-30 TRUE             TRUE      FALSE          FALSE        
#>  8 Shue… 2020-03-29 FALSE            TRUE      FALSE          FALSE        
#>  9 Bouc… 2020-09-04 FALSE            FALSE     FALSE          FALSE        
#> 10 Le, … 2020-08-09 FALSE            FALSE     TRUE           FALSE        
#> # … with 90 more rows, and 44 more variables: Anxiety <lgl>, Arrhythmia <lgl>,
#> #   Benign.prostatic.hyperplasia <lgl>, Bipolar.disorder <lgl>,
#> #   Chronic.airways.disease <lgl>, Congestive.heart.failure <lgl>,
#> #   Dementia <lgl>, Depression <lgl>, Diabetes <lgl>, Epilepsy <lgl>,
#> #   Gastrooesophageal.reflux.disease <lgl>, Glaucoma <lgl>, Gout <lgl>,
#> #   Hepatitis.B <lgl>, Hepatitis.C <lgl>, HIV <lgl>, Hyperkalaemia <lgl>,
#> #   Hyperlipidaemia <lgl>, Hypertension <lgl>, Hyperthyroidism <lgl>,
#> #   Hypothyroidism <lgl>, Incontinence <lgl>, Inflammation.pain <lgl>,
#> #   Irritable.bowel.syndrome <lgl>,
…
Dirty code data

Let’s assume that our code data is not as clean as simulated above.

s <- function(x) sample(x, 1e3, replace = TRUE)

ex_atc$code <- 
  paste0(
    s(letters), s(0:9), s(letters), s(c(".", "-", "?")), 
    ex_atc$atc, s(letters), s(0:9)
  )

ex_atc
#> # A tibble: 10,000 x 4
#>    name                atc      prescription code          
#>    <chr>               <chr>    <date>       <chr>         
#>  1 Meier, Hayden       QC01BD02 2012-08-18   q7g-QC01BD02x8
#>  2 Garza, Kenia        C05AA05  2017-02-26   l3e-C05AA05f2 
#>  3 Chapa, Nicholas     L01XC29  2017-07-17   o5v-L01XC29x2 
#>  4 Slater, Trina       QI07AA03 2012-08-03   d8r.QI07AA03a0
#>  5 Banks, Silbret      QD06BB11 2014-03-01   x5q?QD06BB11g1
#>  6 Winn, Robert        M01CC    2014-12-19   h4k.M01CCs1   
#>  7 Cornelius, Kelly    A16AA07  2017-11-30   r0j.A16AA07j6 
#>  8 Rubin, Miriah       QD10AD   2013-09-24   t2l?QD10ADg7  
#>  9 Slater, Trina       A12AA09  2015-09-13   n4w.A12AA09l3 
#> 10 Jefferson, Deontrae S01AA05  2012-06-26   v1l?S01AA05s7 
#> # … with 9,990 more rows
…
